tissue,cell_ontology_class,facs,droplet
Aorta,aortic endothelial cell,465.0,0.0
Aorta,epithelial cell,18.0,0.0
Aorta,fibroblast of cardiac tissue,215.0,0.0
Aorta,fibrocyte,44.0,0.0
Aorta,macrophage,32.0,0.0
Aorta,professional antigen presenting cell,129.0,0.0
BAT,B cell,529.0,0.0
BAT,NK cell,48.0,0.0
BAT,T cell,155.0,0.0
BAT,endothelial cell,413.0,0.0
BAT,epithelial cell,113.0,0.0
BAT,mesenchymal stem cell of adipose,205.0,0.0
BAT,myeloid cell,756.0,0.0
Bladder,bladder cell,1012.0,2402.0
Bladder,bladder urothelial cell,1420.0,5081.0
Bladder,endothelial cell,0.0,246.0
Bladder,leukocyte,0.0,281.0
Brain_Myeloid,macrophage,287.0,0.0
Brain_Myeloid,microglial cell,13128.0,0.0
Brain_Non-Myeloid,Bergmann glial cell,54.0,0.0
Brain_Non-Myeloid,"CD8-positive, alpha-beta T cell",104.0,0.0
Brain_Non-Myeloid,T cell,67.0,0.0
Brain_Non-Myeloid,astrocyte,592.0,0.0
Brain_Non-Myeloid,brain pericyte,484.0,0.0
Brain_Non-Myeloid,endothelial cell,2232.0,0.0
Brain_Non-Myeloid,ependymal cell,55.0,0.0
Brain_Non-Myeloid,interneuron,240.0,0.0
Brain_Non-Myeloid,macrophage,25.0,0.0
Brain_Non-Myeloid,mature NK T cell,17.0,0.0
Brain_Non-Myeloid,medium spiny neuron,103.0,0.0
Brain_Non-Myeloid,microglial cell,138.0,0.0
Brain_Non-Myeloid,neuroepithelial cell,150.0,0.0
Brain_Non-Myeloid,neuron,484.0,0.0
Brain_Non-Myeloid,neuronal stem cell,97.0,0.0
Brain_Non-Myeloid,oligodendrocyte,2094.0,0.0
Brain_Non-Myeloid,oligodendrocyte precursor cell,312.0,0.0
Diaphragm,B cell,122.0,0.0
Diaphragm,T cell,55.0,0.0
Diaphragm,endothelial cell,218.0,0.0
Diaphragm,macrophage,76.0,0.0
Diaphragm,mesenchymal stem cell,493.0,0.0
Diaphragm,skeletal muscle satellite cell,886.0,0.0
Fat,B cell,0.0,281.0
Fat,T cell,0.0,222.0
Fat,endothelial cell,0.0,845.0
Fat,epithelial cell,0.0,101.0
Fat,erythroblast,0.0,49.0
Fat,lymphocyte,0.0,50.0
Fat,mesenchymal stem cell of adipose,0.0,1591.0
Fat,myeloid cell,0.0,1562.0
GAT,B cell,316.0,0.0
GAT,"CD4-positive, alpha-beta T cell",140.0,0.0
GAT,"CD8-positive, alpha-beta T cell",129.0,0.0
GAT,NK cell,53.0,0.0
GAT,T cell,84.0,0.0
GAT,endothelial cell,341.0,0.0
GAT,epithelial cell,63.0,0.0
GAT,mesenchymal stem cell of adipose,1561.0,0.0
GAT,myeloid cell,718.0,0.0
Heart,B cell,360.0,0.0
Heart,T cell,197.0,0.0
Heart,atrial myocyte,403.0,0.0
Heart,endocardial cell,375.0,0.0
Heart,endothelial cell of coronary artery,2693.0,0.0
Heart,fibroblast of cardiac tissue,3711.0,0.0
Heart,macrophage,83.0,0.0
Heart,monocyte,1281.0,0.0
Heart,smooth muscle cell,103.0,0.0
Heart,valve cell,315.0,0.0
Heart,ventricular myocyte,147.0,0.0
Heart_and_Aorta,cardiac neuron,0.0,16.0
Heart_and_Aorta,cardiomyocyte,0.0,171.0
Heart_and_Aorta,endocardial cell,0.0,537.0
Heart_and_Aorta,endothelial cell of coronary artery,0.0,1360.0
Heart_and_Aorta,erythrocyte,0.0,135.0
Heart_and_Aorta,fibroblast of cardiac tissue,0.0,2112.0
Heart_and_Aorta,leukocyte,0.0,796.0
Heart_and_Aorta,mast cell,0.0,25.0
Heart_and_Aorta,smooth muscle cell,0.0,288.0
Kidney,B cell,84.0,871.0
Kidney,NK cell,0.0,21.0
Kidney,T cell,79.0,484.0
Kidney,brush cell,0.0,298.0
Kidney,epithelial cell of proximal tubule,393.0,1731.0
Kidney,fenestrated cell,268.0,270.0
Kidney,fibroblast,0.0,133.0
Kidney,kidney capillary endothelial cell,0.0,64.0
Kidney,kidney collecting duct epithelial cell,445.0,0.0
Kidney,kidney collecting duct principal cell,157.0,629.0
Kidney,kidney cortex artery cell,0.0,252.0
Kidney,kidney distal convoluted tubule epithelial cell,0.0,357.0
Kidney,kidney interstitial fibroblast,16.0,0.0
Kidney,kidney loop of Henle ascending limb epithelial cell,146.0,0.0
Kidney,kidney loop of Henle thick ascending limb epithelial cell,0.0,874.0
Kidney,kidney mesangial cell,0.0,205.0
Kidney,kidney proximal convoluted tubule epithelial cell,0.0,3086.0
Kidney,lymphocyte,0.0,1038.0
Kidney,macrophage,152.0,930.0
Kidney,mesangial cell,93.0,0.0
Kidney,plasma cell,0.0,234.0
Kidney,podocyte,0.0,402.0
Large_Intestine,Brush cell of epithelium proper of large intestine,175.0,0.0
Large_Intestine,enterocyte of epithelium of large intestine,2542.0,945.0
Large_Intestine,enteroendocrine cell,161.0,0.0
Large_Intestine,epithelial cell of large intestine,1704.0,220.0
Large_Intestine,hematopoietic stem cell,0.0,10.0
Large_Intestine,intestinal crypt stem cell,1579.0,275.0
Large_Intestine,large intestine goblet cell,1587.0,145.0
Large_Intestine,secretory cell,563.0,0.0
Limb_Muscle,B cell,187.0,310.0
Limb_Muscle,Schwann cell,0.0,43.0
Limb_Muscle,T cell,136.0,440.0
Limb_Muscle,endothelial cell,453.0,1168.0
Limb_Muscle,macrophage,310.0,1843.0
Limb_Muscle,mesenchymal stem cell,935.0,9222.0
Limb_Muscle,skeletal muscle cell,0.0,53.0
Limb_Muscle,skeletal muscle satellite cell,1833.0,926.0
Limb_Muscle,smooth muscle cell,0.0,316.0
Liver,B cell,210.0,91.0
Liver,"CD4-positive, alpha-beta T cell",42.0,0.0
Liver,"CD8-positive, alpha-beta T cell",63.0,0.0
Liver,Kupffer cell,262.0,2054.0
Liver,NK cell,42.0,211.0
Liver,T cell,45.0,0.0
Liver,endothelial cell of hepatic sinusoid,617.0,139.0
Liver,hepatic stellate cell,0.0,20.0
Liver,hepatocyte,1161.0,1816.0
Liver,mature NK T cell,176.0,0.0
Liver,myeloid leukocyte,209.0,283.0
Liver,neutrophil,30.0,0.0
Liver,plasmacytoid dendritic cell,0.0,34.0
Lung,B cell,276.0,287.0
Lung,"CD4-positive, alpha-beta T cell",59.0,129.0
Lung,"CD8-positive, alpha-beta T cell",119.0,498.0
Lung,NK cell,52.0,214.0
Lung,T cell,28.0,94.0
Lung,adventitial cell,289.0,236.0
Lung,alveolar macrophage,0.0,650.0
Lung,basophil,0.0,15.0
Lung,bronchial smooth muscle cell,2117.0,466.0
Lung,ciliated columnar cell of tracheobronchial tree,52.0,48.0
Lung,classical monocyte,202.0,3310.0
Lung,club cell of bronchiole,22.0,4.0
Lung,dendritic cell,62.0,40.0
Lung,endothelial cell of lymphatic vessel,99.0,9.0
Lung,fibroblast of lung,483.0,419.0
Lung,intermediate monocyte,12.0,518.0
Lung,leukocyte,38.0,0.0
Lung,lung macrophage,9.0,337.0
Lung,lung neuroendocrine cell,4.0,4.0
Lung,lymphocyte,10.0,0.0
Lung,mature NK T cell,6.0,46.0
Lung,myeloid dendritic cell,373.0,231.0
Lung,neutrophil,123.0,193.0
Lung,non-classical monocyte,149.0,293.0
Lung,pericyte cell,38.0,5.0
Lung,plasma cell,25.0,40.0
Lung,plasmacytoid dendritic cell,6.0,71.0
Lung,pulmonary interstitial fibroblast,50.0,3.0
Lung,regulatory T cell,47.0,31.0
Lung,respiratory basal cell,34.0,0.0
Lung,smooth muscle cell of the pulmonary artery,111.0,36.0
Lung,type I pneumocyte,4.0,0.0
Lung,type II pneumocyte,167.0,105.0
Lung,vein endothelial cell,151.0,88.0
MAT,B cell,370.0,0.0
MAT,"CD4-positive, alpha-beta T cell",175.0,0.0
MAT,"CD8-positive, alpha-beta T cell",209.0,0.0
MAT,NK cell,45.0,0.0
MAT,T cell,65.0,0.0
MAT,endothelial cell,253.0,0.0
MAT,epithelial cell,51.0,0.0
MAT,macrophage,228.0,0.0
MAT,mesenchymal stem cell of adipose,1396.0,0.0
MAT,myeloid cell,221.0,0.0
Mammary_Gland,B cell,0.0,471.0
Mammary_Gland,T cell,0.0,1302.0
Mammary_Gland,basal cell,2139.0,1089.0
Mammary_Gland,endothelial cell,35.0,381.0
Mammary_Gland,luminal epithelial cell of mammary gland,768.0,1666.0
Mammary_Gland,macrophage,0.0,411.0
Mammary_Gland,stromal cell,340.0,1882.0
Marrow,"CD4-positive, alpha-beta T cell",280.0,0.0
Marrow,NK cell,473.0,133.0
Marrow,basophil,71.0,121.0
Marrow,early pro-B cell,72.0,0.0
Marrow,erythroblast,0.0,2169.0
Marrow,erythroid progenitor,0.0,366.0
Marrow,granulocyte,2892.0,6828.0
Marrow,granulocyte monocyte progenitor cell,250.0,0.0
Marrow,granulocytopoietic cell,483.0,5972.0
Marrow,hematopoietic precursor cell,0.0,1400.0
Marrow,hematopoietic stem cell,3306.0,0.0
Marrow,immature B cell,589.0,733.0
Marrow,late pro-B cell,411.0,463.0
Marrow,lymphoid progenitor cell,13.0,0.0
Marrow,macrophage,437.0,970.0
Marrow,mature alpha-beta T cell,330.0,0.0
Marrow,megakaryocyte-erythroid progenitor cell,80.0,1828.0
Marrow,monocyte,0.0,2032.0
Marrow,naive B cell,2959.0,306.0
Marrow,naive T cell,0.0,1550.0
Marrow,plasma cell,0.0,334.0
Marrow,precursor B cell,856.0,679.0
Marrow,proerythroblast,0.0,1646.0
Marrow,promonocyte,1015.0,2773.0
Pancreas,endothelial cell,202.0,68.0
Pancreas,leukocyte,120.0,99.0
Pancreas,pancreatic A cell,521.0,167.0
Pancreas,pancreatic B cell,1342.0,1439.0
Pancreas,pancreatic D cell,191.0,189.0
Pancreas,pancreatic PP cell,71.0,157.0
Pancreas,pancreatic acinar cell,569.0,195.0
Pancreas,pancreatic ductal cel,0.0,223.0
Pancreas,pancreatic ductal cell,313.0,0.0
Pancreas,pancreatic stellate cell,48.0,10.0
SCAT,B cell,323.0,0.0
SCAT,"CD4-positive, alpha-beta T cell",60.0,0.0
SCAT,"CD8-positive, alpha-beta T cell",91.0,0.0
SCAT,NK cell,77.0,0.0
SCAT,T cell,108.0,0.0
SCAT,endothelial cell,489.0,0.0
SCAT,epithelial cell,179.0,0.0
SCAT,mesenchymal stem cell of adipose,1570.0,0.0
SCAT,myeloid cell,857.0,0.0
Skin,T cell,27.0,15.0
Skin,basal cell of epidermis,1672.0,2026.0
Skin,bulge keratinocyte,2603.0,0.0
Skin,epidermal cell,492.0,1710.0
Skin,fibroblast,17.0,0.0
Skin,keratinocyte stem cell,35.0,338.0
Skin,macrophage,13.0,0.0
Skin,stem cell of epidermis,0.0,170.0
Spleen,B cell,2851.0,6716.0
Spleen,"CD4-positive, alpha-beta T cell",414.0,0.0
Spleen,"CD8-positive, alpha-beta T cell",354.0,0.0
Spleen,NK cell,87.0,145.0
Spleen,T cell,0.0,1353.0
Spleen,erythroblast,0.0,173.0
Spleen,granulocyte,21.0,997.0
Spleen,immature NKT cell,0.0,76.0
Spleen,macrophage,0.0,999.0
Spleen,macrophage dendritic cell progenitor,0.0,138.0
Spleen,mature NK T cell,0.0,1285.0
Spleen,megakaryocyte-erythroid progenitor cell,0.0,753.0
Spleen,plasma cell,0.0,670.0
Spleen,proerythroblast,107.0,743.0
Thymus,DN3 thymocyte,0.0,122.0
Thymus,DN4 thymocyte,1756.0,1087.0
Thymus,double negative T cell,0.0,124.0
Thymus,endothelial cell,51.0,0.0
Thymus,epithelial cell of thymus,165.0,0.0
Thymus,fibroblast,77.0,0.0
Thymus,immature T cell,0.0,68.0
Thymus,macrophage,373.0,0.0
Thymus,professional antigen presenting cell,0.0,748.0
Thymus,thymocyte,1615.0,1747.0
Tongue,Langerhans cell,0.0,141.0
Tongue,basal cell of epidermis,2542.0,9284.0
Tongue,keratinocyte,1193.0,10833.0
Trachea,T cell,283.0,0.0
Trachea,basal epithelial cell of tracheobronchial tree,404.0,397.0
Trachea,chondrocyte,275.0,1065.0
Trachea,ciliated columnar cell of tracheobronchial tree,18.0,0.0
Trachea,endothelial cell,241.0,112.0
Trachea,epithelial cell,0.0,145.0
Trachea,fibroblast,1236.0,485.0
Trachea,granulocyte,52.0,154.0
Trachea,keratinocyte,22.0,0.0
Trachea,macrophage,430.0,209.0
Trachea,mesenchymal progenitor cell,0.0,488.0
Trachea,mucus secreting cell,73.0,0.0
Trachea,smooth muscle cell of trachea,124.0,35.0
